<svg xmlns="http://www.w3.org/2000/svg" viewBox="0 0 527.42 408.96"><title>Ресурс 1</title><g id="Слой_2" data-name="Слой 2">
    <g id="Слой_1-2" data-name="Слой 1">
        <path d="M403.6,208.94a75.6,75.6,0,1,0,75.6,75.6A75.71,75.71,0,0,0,403.6,208.94Zm0,127.39a51.79,51.79,0,1,1,51.79-51.79A51.83,51.83,0,0,1,403.6,336.33Z"/><path d="M336.93,34.53H276.21a12.2,12.2,0,0,0-11.31,7.74l-23.81,61.31a12.8,12.8,0,0,0,1.19,11.31,11.7,11.7,0,0,0,10.12,5.36h84.53a11.94,11.94,0,0,0,11.91-11.91V46.43A11.94,11.94,0,0,0,336.93,34.53ZM325,95.84H269.66l14.29-37.5h40.48v37.5Z"/><path d="M403.6,160.73h0V142.87h0v-131A11.94,11.94,0,0,0,391.69,0H224.42a12.21,12.21,0,0,0-11.31,7.74L168.46,130.37H83.93V35.72A11.94,11.94,0,0,0,72,23.81H27.38a11.91,11.91,0,0,0,0,23.81H60.12v82.74H11.91A11.94,11.94,0,0,0,0,142.27v153a11.94,11.94,0,0,0,11.91,11.91H37.5a79.36,79.36,0,0,0-1.79,16.67c0,46.43,38.1,84.53,84.53,84.53a83.84,83.84,0,0,0,83.93-83.93,75.31,75.31,0,0,0-1.79-16.67h79.17a124,124,0,0,0,245.85-22.62C527.42,216.68,472.06,160.73,403.6,160.73ZM232.75,23.81h147V130.37H194.06ZM119.65,384.55a60.72,60.72,0,1,1,0-121.44c33.34.6,60.72,28,60.72,61.31S153,384.55,119.65,384.55Zm0-144.65a85.12,85.12,0,0,0-73.81,43.46h-22V154.18h356v8.93c-56.55,10.71-100,60.72-100,120.25H193.47A84.4,84.4,0,0,0,119.65,239.9ZM403.6,384.55c-55.36,0-100-45.24-100-100s45.24-100,100-100c55.36,0,100,45.24,100,100S459,384.55,403.6,384.55Z"/><path d="M111.32,316.09a11.91,11.91,0,1,0,16.67,0C123.82,311.33,116.08,311.33,111.32,316.09Z"/>
    </g>
</g></svg>